Homework 5
…
# Gallons sold per category
d1 <- data %>%
  group_by(`Category Name`) %>%
  summarise(
    volume = sum(`Volume Sold (Gallons)`)
  )
drop_na(d1)

## # A tibble: 123 x 2
##    `Category Name`                volume
##    <chr>                           <dbl>
##  1 100 PROOF VODKA               3346.  
##  2 100% Agave Tequila            4370.  
##  3 Aged Dark Rum                  716.  
##  4 AMARETTO - IMPORTED              7.14
##  5 AMERICAN ALCOHOL              2266.  
##  6 AMERICAN AMARETTO             2708.  
##  7 American Brandies             4698.  
##  8 AMERICAN COCKTAILS           20467.  
##  9 American Cordials & Liqueur   3805.  
## 10 American Cordials & Liqueurs    41.0 
## # ... with 113 more rows
…
